<?xml version="1.0" encoding="UTF-8"?>
<CustomTab xmlns="http://soap.sforce.com/2006/04/metadata">
    <frameHeight>600</frameHeight>
    <hasSidebar>true</hasSidebar>
    <label>Auto Glass</label>
    <motif>Custom83: Pencil</motif>
    <url>https://forthepeople.my.salesforce.com/flow/Case_Processor_Auto_Glass</url>
    <urlEncodingKey>UTF-8</urlEncodingKey>
</CustomTab>
