<?xml version="1.0" encoding="UTF-8"?>
<CustomTab xmlns="http://soap.sforce.com/2006/04/metadata">
    <description>Created by Lightning App Builder</description>
    <flexiPage>Document_Generation_ETL_Tool</flexiPage>
    <label>Document Generation ETL Tool</label>
    <motif>Custom19: Wrench</motif>
</CustomTab>
