<?xml version="1.0" encoding="UTF-8"?>
<CustomTab xmlns="http://soap.sforce.com/2006/04/metadata">
    <customObject>true</customObject>
    <description>Record insurances related to a matter.</description>
    <motif>Custom290: TV Widescreen</motif>
</CustomTab>
