<?xml version="1.0" encoding="UTF-8"?>
<CustomTab xmlns="http://soap.sforce.com/2006/04/metadata">
    <customObject>true</customObject>
    <description>Deprecated - Results of a questionnaire</description>
    <motif>Custom65: Cup</motif>
</CustomTab>
