<?xml version="1.0" encoding="UTF-8"?>
<CustomTab xmlns="http://soap.sforce.com/2006/04/metadata">
    <flexiPage>litify_docs__File_Details</flexiPage>
    <label>File Details</label>
    <motif>Custom67: Gears</motif>
</CustomTab>
