<?xml version="1.0" encoding="UTF-8"?>
<CustomTab xmlns="http://soap.sforce.com/2006/04/metadata">
    <customObject>true</customObject>
    <description>Record rules for Statutes of Limitations by jurisdiction and case type.</description>
    <motif>Custom91: Shield</motif>
</CustomTab>
