<?xml version="1.0" encoding="UTF-8"?>
<CustomTab xmlns="http://soap.sforce.com/2006/04/metadata">
    <label>Support</label>
    <motif>Custom94: Stethoscope</motif>
    <page>litify_pm__support</page>
</CustomTab>
