<?xml version="1.0" encoding="UTF-8"?>
<CustomTab xmlns="http://soap.sforce.com/2006/04/metadata">
    <description>Created by Lightning App Builder</description>
    <flexiPage>litify_pm__DICE</flexiPage>
    <label>DICE</label>
    <motif>Custom51: Apple</motif>
</CustomTab>
