<?xml version="1.0" encoding="UTF-8"?>
<CustomTab xmlns="http://soap.sforce.com/2006/04/metadata">
    <label>Litify.com Setup</label>
    <motif>Custom67: Gears</motif>
    <page>litify_pm__setup</page>
</CustomTab>
