<?xml version="1.0" encoding="UTF-8"?>
<CustomTab xmlns="http://soap.sforce.com/2006/04/metadata">
    <label>Sync</label>
    <motif>Custom67: Gears</motif>
    <page>litify_pm__sync</page>
</CustomTab>
