<?xml version="1.0" encoding="UTF-8"?>
<CustomTab xmlns="http://soap.sforce.com/2006/04/metadata">
    <customObject>true</customObject>
    <description>Refer matters to partner firms.</description>
    <motif>Custom14: Hands</motif>
</CustomTab>
