<?xml version="1.0" encoding="UTF-8"?>
<CustomTab xmlns="http://soap.sforce.com/2006/04/metadata">
    <customObject>true</customObject>
    <description>State engine tracking data for monitoring chained payment collection payment management batch job status.</description>
    <motif>Custom67: Gears</motif>
</CustomTab>
