<?xml version="1.0" encoding="UTF-8"?>
<CustomTab xmlns="http://soap.sforce.com/2006/04/metadata">
    <customObject>true</customObject>
    <description>Container records for a groups of related payments.  Supports the custom payment screen and custom payment batch processes.</description>
    <motif>Custom67: Gears</motif>
</CustomTab>
